{"response":{"status":"ok","userTier":"developer","total":1817619,"startIndex":1,"pageSize":10,"currentPage":1,"pages":181762,"orderBy":"newest","results":[{"type":"article","sectionId":"books","webTitle":"Harold Mattingly obituary","webPublicationDate":"2015-09-28T16:43:47Z","id":"books/2015/sep/28/harold-mattingly-obituary","webUrl":"http://www.theguardian.com/books/2015/sep/28/harold-mattingly-obituary","apiUrl":"http://content.guardianapis.com/books/2015/sep/28/harold-mattingly-obituary","sectionName":"Books"},{"type":"liveblog","sectionId":"politics","webTitle":"Mandelson should be expelled from Labour, Corbyn-supporting Labour MP suggests - Politics live","webPublicationDate":"2015-09-28T16:43:03Z","id":"politics/blog/live/2015/sep/28/labour-conference-john-mcdonnells-economy-speech-politics-live","webUrl":"http://www.theguardian.com/politics/blog/live/2015/sep/28/labour-conference-john-mcdonnells-economy-speech-politics-live","apiUrl":"http://content.guardianapis.com/politics/blog/live/2015/sep/28/labour-conference-john-mcdonnells-economy-speech-politics-live","sectionName":"Politics"},{"type":"article","sectionId":"film","webTitle":"China has last laugh as Lost in Hong Kong posts highest comedy debut ever","webPublicationDate":"2015-09-28T16:40:17Z","id":"film/filmblog/2015/sep/28/global-box-office-lost-in-hong-kong-the-intern-hotel-transylvania-2","webUrl":"http://www.theguardian.com/film/filmblog/2015/sep/28/global-box-office-lost-in-hong-kong-the-intern-hotel-transylvania-2","apiUrl":"http://content.guardianapis.com/film/filmblog/2015/sep/28/global-box-office-lost-in-hong-kong-the-intern-hotel-transylvania-2","sectionName":"Film"},{"type":"article","sectionId":"education","webTitle":"Asher Tropp obituary","webPublicationDate":"2015-09-28T16:38:40Z","id":"education/2015/sep/28/asher-tropp-obituary","webUrl":"http://www.theguardian.com/education/2015/sep/28/asher-tropp-obituary","apiUrl":"http://content.guardianapis.com/education/2015/sep/28/asher-tropp-obituary","sectionName":"Education"},{"type":"liveblog","sectionId":"business","webTitle":"Glencore shares crash 29% as European markets slide -- as it happened","webPublicationDate":"2015-09-28T16:36:09Z","id":"business/live/2015/sep/28/chinese-growth-fears-catalan-vote-markets-volkswagen-live","webUrl":"http://www.theguardian.com/business/live/2015/sep/28/chinese-growth-fears-catalan-vote-markets-volkswagen-live","apiUrl":"http://content.guardianapis.com/business/live/2015/sep/28/chinese-growth-fears-catalan-vote-markets-volkswagen-live","sectionName":"Business"},{"type":"article","sectionId":"artanddesign","webTitle":"Birmingham New Street station review: a 'value-engineered' icon","webPublicationDate":"2015-09-28T16:35:34Z","id":"artanddesign/architecture-design-blog/2015/sep/28/birmingham-new-street-station-foreign-office-architects","webUrl":"http://www.theguardian.com/artanddesign/architecture-design-blog/2015/sep/28/birmingham-new-street-station-foreign-office-architects","apiUrl":"http://content.guardianapis.com/artanddesign/architecture-design-blog/2015/sep/28/birmingham-new-street-station-foreign-office-architects","sectionName":"Art and design"},{"type":"article","sectionId":"artanddesign","webTitle":"Funny animal pictures awards – who’s in the frame?","webPublicationDate":"2015-09-28T16:34:26Z","id":"artanddesign/shortcuts/2015/sep/28/comedy-wildlife-photography-awards-funny-animal-pictures","webUrl":"http://www.theguardian.com/artanddesign/shortcuts/2015/sep/28/comedy-wildlife-photography-awards-funny-animal-pictures","apiUrl":"http://content.guardianapis.com/artanddesign/shortcuts/2015/sep/28/comedy-wildlife-photography-awards-funny-animal-pictures","sectionName":"Art and design"},{"type":"article","sectionId":"technology","webTitle":"Apple's iPhone 6S breaks record as China boosts sales to 13m","webPublicationDate":"2015-09-28T16:30:42Z","id":"technology/2015/sep/28/iphone-6s-apple-breaks-record-sales-china","webUrl":"http://www.theguardian.com/technology/2015/sep/28/iphone-6s-apple-breaks-record-sales-china","apiUrl":"http://content.guardianapis.com/technology/2015/sep/28/iphone-6s-apple-breaks-record-sales-china","sectionName":"Technology"},{"type":"liveblog","sectionId":"science","webTitle":"Water on  Mars: Nasa reveals briny flows on surface - live","webPublicationDate":"2015-09-28T16:30:40Z","id":"science/across-the-universe/live/2015/sep/28/water-on-mars-buildup-to-nasa-mystery-solved-announcement-live","webUrl":"http://www.theguardian.com/science/across-the-universe/live/2015/sep/28/water-on-mars-buildup-to-nasa-mystery-solved-announcement-live","apiUrl":"http://content.guardianapis.com/science/across-the-universe/live/2015/sep/28/water-on-mars-buildup-to-nasa-mystery-solved-announcement-live","sectionName":"Science"},{"type":"article","sectionId":"politics","webTitle":"Marquess plots with Marxists to foil Tories","webPublicationDate":"2015-09-28T16:26:10Z","id":"politics/2015/sep/28/marquess-plots-with-marxists-to-foil-tories","webUrl":"http://www.theguardian.com/politics/2015/sep/28/marquess-plots-with-marxists-to-foil-tories","apiUrl":"http://content.guardianapis.com/politics/2015/sep/28/marquess-plots-with-marxists-to-foil-tories","sectionName":"Politics"}]}}
